…
We now want to "gather" the data so that each data column in fact becomes a row in its own right. In Power BI (as a later post will illustrate) this is called "unpivoting".

```
ed_1_15 <- gather(ed_1_15, "QTime", "Flow", -Time)
ed_1_15
# A tibble: 96 x 3
   Time  QTime  Flow
   <chr> <chr> <dbl>
 1 0000  00-15     1
 2 0100  00-15     1
 3 0200  00-15     0
 4 0300  00-15     0
 5 0400  00-15     0
 6 0500  00-15     0
 7 0600  00-15     3
 8 0700  00-15    18
 9 0800  00-15    40
10 0900  00-15    25
# ... with 86 more rows
```
…
